926,946
450,1000
309,1000
712,985
428,992
742,980
470,988
958,1043
107,1001
154,989
204,989
110,1048
268,986
231,1011
445,990
907,1062
208,944
928,1018
543,1037
471,1114
813,1069
22,984
275,965
23,993
949,959
44,942
850,1021
62,963
414,939
715,986
614,1043
293,1048
809,1007
105,1002
253,1015
523,999
963,992
893,1018
439,988
256,1001
237,987
666,998
502,1039
88,988
372,1022
996,1011
563,1019
375,1030
153,911
327,1037
352,985
166,981
240,983
672,1010
998,1010
437,1036
847,989
606,988
155,980
931,1032
98,976
528,1001
170,991
367,1024
873,1045
685,987
72,1017
163,1036
764,1001
703,933
478,1020
383,988
288,972
633,1044
251,985
665,1048
350,960
232,1007
866,990
209,1006
781,1010
810,970
77,1009
360,992
228,957
33,992
101,978
601,1026
111,1000
691,991
874,998
823,970
978,968
537,1003
932,1010
709,957
263,998
442,967
159,1066
215,995
690,1018
735,1048
175,1061
287,984
295,998
844,966
816,944
262,1047
515,1018
380,999
402,1010
18,986
767,1043
934,996
890,970
492,1048
696,1062
296,1030
658,1002
722,984
904,944
323,999
778,995
433,981
495,991
413,999
758,1000
827,983
540,1054
148,1020
364,999
945,1008
284,976
186,1011
752,969
9,974
294,965
721,995
541,944
915,1032
791,958
947,984
315,981
798,1018
689,1001
246,976
956,960
869,1015
146,983
455,920
389,1061
274,1004
812,1033
512,1004
291,993
902,1013
579,959
796,1019
91,965
960,982
599,1022
664,1000
952,991
467,1023
957,1016
967,1010
392,966
524,938
782,1014
769,965
865,948
909,1003
60,992
286,942
659,984
218,996
574,1036
190,1006
417,1030
833,961
762,1050
774,993
610,981
238,1017
356,1008
13,1046
761,1037
632,1040
944,1006
917,946
317,994
621,1057
64,954
65,1068
576,971
845,966
419,984
11,1002
994,1053
435,1003
307,1039
788,996
79,1039
338,999
280,985
144,993
876,992
184,993
201,999
820,999
390,1010
912,1016
321,1000
726,1020
267,1040
207,1030
808,1008
797,963
552,999
401,1021
861,1049
750,977
97,1008
283,992
716,1040
695,998
683,947
860,1008
299,971
657,1033
688,962
961,978
681,977
962,978
319,1048
905,1066
404,1015
391,979
748,1033
611,989
643,1022
213,1028
12,1007
646,1047
386,984
526,987
496,1010
108,1030
619,938
368,986
546,976
385,933
248,978
671,994
211,1035
92,979
311,990
655,952
48,1012
141,985
34,1028
622,1006
741,950
196,1041
590,948
704,1054
968,961
879,974
378,987
564,978
443,1033
96,999
562,1022
636,970
362,991
895,1052
172,1051
179,935
406,981
38,961
195,987
273,1047
106,994
8,1008
990,1021
649,1004
697,975
265,1035
302,999
461,1008
135,1008
772,956
583,988
939,987
483,1007
935,991
220,1008
245,959
814,1013
753,933
773,986
604,980
479,977
93,993
885,1045
158,980
49,1012
730,978
55,1051
331,945
489,1001
15,990
225,1028
134,1019
829,1017
529,1082
924,1033
668,1036
754,984
857,992
806,1013
191,1000
377,1009
239,958
47,962
410,999
530,1015
366,970
453,962
223,957
575,983
717,955
826,1000
430,977
28,1007
589,958
381,984
771,993
738,947
654,1000
560,999
624,1025
449,988
347,1016
817,969
837,957
354,1029
498,1018
687,1040
925,972
177,1026
527,997
120,1007
500,1026
126,1027
886,1017
539,1028
757,980
549,942
272,980
75,972
104,999
760,996
431,967
41,1036
429,1008
877,1024
451,948
618,988
882,978
490,1036
514,955
398,1011
519,968
739,1058
677,1015
279,990
656,965
744,1029
90,1012
459,1015
16,1039
313,1004
999,1032
896,994
686,1000
227,972
535,990
171,982
894,958
54,977
127,1060
233,1004
916,992
940,993
835,968
639,987
802,1004
555,999
921,993
853,987
32,986
472,995
698,1008
652,987
59,991
244,987
595,1003
851,1011
289,958
374,1008
841,1051
711,1022
2,1014
731,1068
840,989
440,1052
408,1047
423,993
176,1011
628,1018
946,997
480,1025
648,986
393,986
627,993
536,992
36,999
759,956
922,1019
625,1025
839,1044
521,1023
212,999
965,985
242,996
94,980
359,1051
984,1023
415,1040
607,984
629,1025
210,968
859,979
112,974
504,983
424,984
432,957
950,1034
95,944
140,965
838,992
804,1050
584,1003
266,951
580,982
497,998
588,1014
394,1038
197,1065
99,945
987,1019
397,1064
56,1020
623,973
257,932
981,948
667,962
834,1017
736,1067
468,977
300,982
298,984
7,995
966,1009
936,1033
161,1027
355,971
900,1014
897,1004
923,986
800,934
339,943
484,1016
68,1025
554,1081
862,959
241,989
457,1052
743,1032
906,989
50,1031
603,989
532,983
775,989
964,1015
164,973
959,995
329,1057
255,964
30,956
720,1038
747,993
124,1019
304,937
765,1004
454,966
165,977
421,988
221,1086
325,1019
1000,963
203,1009
585,967
31,1003
187,983
180,970
53,1005
638,1025
566,1039
342,1014
914,1032
157,966
660,990
701,1030
243,1028
156,969
832,1010
637,1012
25,1044
980,953
249,1039
680,978
550,1001
615,983
848,1050
982,1044
551,999
80,949
572,1006
5,1005
71,1038
73,1054
801,1030
559,1026
544,1030
427,945
591,1081
102,1007
182,991
787,995
346,971
174,994
581,1003
434,1018
557,1011
593,1003
310,1001
384,967
911,1025
880,1003
69,1011
214,936
828,947
426,984
635,958
89,1031
314,1025
670,925
411,989
783,920
131,986
357,954
353,994
373,973
819,1004
573,996
776,930
608,973
452,1008
168,986
139,1003
128,963
992,1045
937,931
51,1011
785,977
815,1003
188,972
3,1018
951,1057
162,993
749,975
181,1027
476,1023
587,1071
234,981
57,966
732,1031
887,1015
805,999
335,1040
919,972
531,962
582,1020
407,959
132,968
989,996
230,982
78,1048
491,969
61,977
600,968
351,997
63,1042
793,1004
653,938
270,1000
152,1025
138,963
0,997
425,972
694,971
784,978
678,1028
281,971
334,1093
763,923
149,976
976,1018
948,952
133,992
864,1055
725,964
320,1030
169,1015
881,1053
634,1012
501,985
511,1019
975,1001
507,973
116,1079
123,933
86,1065
66,998
183,1008
205,1002
81,1010
553,1001
849,1068
39,1004
151,988
418,993
143,1038
202,1004
503,1004
955,1025
830,1044
520,973
985,1010
494,992
570,990
235,1030
842,966
995,980
727,974
324,1036
369,934
662,989
594,1044
991,975
199,940
612,999
326,966
52,955
229,1042
708,987
651,1014
499,1008
482,987
679,975
699,972
929,1020
970,1011
308,962
993,1044
927,1023
856,1038
795,1015
250,946
167,1027
751,1003
198,979
836,934
821,987
463,1019
328,971
475,1008
137,984
259,937
534,1026
565,930
891,994
136,961
466,1024
278,977
254,1023
192,1018
189,1004
474,992
486,1010
872,996
119,976
941,1041
17,1014
899,1087
145,1012
903,994
568,993
217,973
318,990
103,1027
371,1009
901,1034
118,1014
285,965
542,987
545,994
561,989
444,965
409,1036
305,997
973,981
1,1006
147,1003
718,1068
224,1020
74,983
516,1006
567,1000
447,1015
493,1004
395,1016
871,997
487,1063
258,1004
462,1049
194,1019
647,1006
997,977
469,1035
740,1005
729,949
794,967
276,940
714,1047
125,994
943,1026
883,960
379,969
200,1006
130,1020
799,1024
854,948
344,1014
142,954
193,1002
602,959
400,1025
631,1015
983,965
811,979
733,1031
297,976
586,1008
83,1041
10,1008
301,973
29,984
185,1068
663,1037
290,978
613,967
755,986
884,975
473,998
779,1030
508,1024
422,957
441,995
977,1020
506,983
858,1014
448,1024
792,986
349,996
938,991
6,980
129,1028
707,962
226,986
974,996
803,1006
517,1039
746,1027
446,928
969,1046
910,973
538,1034
26,968
596,1011
868,971
70,1009
988,1011
525,987
27,1011
438,998
247,984
675,971
361,976
569,1022
831,1029
46,1008
336,1032
780,1002
669,978
24,1036
337,1003
387,980
348,935
322,1024
737,1020
702,992
67,1024
485,1044
644,1027
786,1048
889,1008
676,970
260,998
4,1029
692,1004
700,1073
420,965
40,959
460,1001
892,1036
705,956
609,985
412,1006
723,1088
898,1009
271,957
282,1040
87,1044
150,970
533,1003
21,1037
661,966
436,1004
617,1024
684,981
918,1026
745,985
682,1013
693,1025
341,935
363,982
333,992
269,988
343,1036
340,1029
345,1002
642,982
933,1043
488,1009
45,1013
113,1071
641,1023
790,932
370,1039
870,951
719,984
396,979
332,994
673,1025
954,995
592,942
620,1022
35,995
822,1018
19,1032
766,966
777,1035
14,975
316,990
388,993
556,986
405,1037
852,984
477,994
674,1055
825,1022
365,1028
114,943
986,1028
216,998
277,987
846,946
953,1004
20,886
464,967
878,1020
942,976
734,1028
84,957
222,999
42,1014
358,1051
630,1008
219,1071
109,991
972,968
598,980
513,1017
115,913
382,981
236,989
650,926
122,1036
855,974
597,960
37,1064
789,983
456,1009
252,1013
728,1036
706,1010
481,978
913,1024
206,987
888,1019
173,1044
509,1030
770,1010
306,1003
399,948
558,1015
522,971
43,973
312,998
505,988
58,971
807,972
76,983
979,1025
930,1017
330,1011
824,993
713,1031
908,962
971,960
605,1040
710,961
724,974
518,1017
756,1000
577,1005
640,953
510,1000
100,989
465,995
160,1053
178,1024
768,949
458,989
571,979
403,948
82,1023
645,988
303,991
875,971
547,1044
264,1018
626,944
117,963
548,989
818,984
416,1029
261,994
863,965
867,1033
376,991
292,1007
616,1022
920,949
121,969
843,985
85,982
578,945
