245,992
13,995
729,992
495,978
188,1058
212,1017
78,999
271,984
434,935
763,1048
452,982
994,1008
859,1005
642,1018
577,1052
844,992
54,966
933,1008
303,1044
237,1034
534,1050
485,1049
888,1005
568,1024
685,1019
580,989
632,954
394,1011
355,989
519,980
932,979
484,1016
826,992
20,1049
494,1039
414,1006
320,1063
653,1042
429,1094
516,997
133,1000
441,1006
63,977
475,1010
352,1012
581,982
461,1009
259,1015
818,974
433,1012
91,1003
542,1007
692,968
615,1040
559,988
261,1015
543,1024
262,1009
131,1026
286,961
98,996
621,1033
410,1015
402,1007
870,1025
359,1003
323,940
193,1012
579,939
154,993
132,1011
64,1010
37,989
451,981
558,1053
654,965
66,993
906,966
668,982
821,982
727,1020
682,1018
121,934
379,1015
631,991
347,1025
734,945
57,1001
665,1001
250,1061
972,1020
510,1032
926,979
731,933
176,1000
425,993
203,1005
783,994
1000,1004
811,975
601,992
948,983
973,980
361,1007
180,991
311,1003
967,975
247,962
122,931
637,933
837,966
761,977
656,983
891,1025
796,968
492,954
825,977
710,996
889,1029
622,1015
843,1018
74,1000
776,977
847,987
920,989
762,977
128,1007
430,1033
633,943
578,965
874,1033
112,998
659,969
125,1029
362,967
733,991
864,1049
398,983
853,1053
81,984
52,1027
758,1074
602,1089
243,981
661,1049
797,987
875,1030
958,1015
277,963
561,981
321,1009
717,962
406,1070
187,991
539,1004
218,1007
59,960
255,1027
708,1059
764,943
129,947
69,1005
44,998
867,1066
476,970
118,957
95,1035
103,929
702,985
421,976
532,1020
943,1000
686,981
491,907
89,950
12,972
162,935
567,972
71,994
564,965
537,1107
674,943
965,989
194,998
975,1013
949,1064
575,950
953,1038
618,996
420,977
808,1000
677,1076
835,931
517,1010
11,1038
987,1024
966,992
82,951
53,1019
589,1050
202,934
296,987
387,1002
590,989
801,955
27,1002
985,961
838,1064
695,1026
107,1004
945,1042
545,1006
605,990
595,1008
144,1047
649,965
594,1034
608,1002
520,982
730,989
345,990
462,991
724,1002
139,1012
719,952
572,1034
357,979
784,1013
344,978
364,1040
240,1010
794,971
898,976
842,1005
675,1015
955,995
416,1021
48,1004
963,1007
206,1024
872,981
4,995
596,992
163,978
363,977
233,931
244,991
26,998
294,984
780,1012
190,994
493,1026
437,1054
309,1063
591,976
282,1063
418,969
892,1014
513,1024
793,987
616,962
550,990
678,965
992,1001
415,1090
166,951
115,997
971,1050
739,961
174,978
699,1051
609,968
266,983
799,983
333,972
373,965
274,1003
8,1004
314,969
217,983
757,994
61,981
910,1013
855,1021
742,978
937,1014
848,1000
392,991
456,994
458,990
788,1025
251,998
426,944
380,996
626,993
232,982
381,1011
981,1008
182,1006
841,981
925,1020
442,1060
9,1004
350,956
453,966
718,1033
512,1026
198,1077
0,990
136,952
639,976
444,987
343,977
252,1045
186,975
574,985
858,961
431,1011
102,1003
697,975
546,1005
624,1037
919,989
941,1027
455,1038
930,1024
698,1073
428,1027
50,942
557,973
246,970
969,985
792,1005
24,945
354,991
740,1007
778,996
289,1001
96,980
865,994
43,966
603,1050
41,1024
807,1021
587,971
141,991
474,1023
803,1001
341,1016
165,967
822,1049
97,1030
230,964
690,1011
531,956
159,988
721,1040
499,960
815,987
500,1019
229,998
772,1017
383,1032
299,965
169,1038
471,1014
275,1017
466,965
228,991
947,954
586,1024
31,986
711,1022
264,991
549,981
896,955
819,1043
986,972
831,949
940,1026
234,994
19,984
944,1029
87,986
239,1048
978,982
447,991
830,968
635,1040
34,1073
395,969
220,980
123,968
196,1019
696,932
435,998
752,1019
312,988
901,945
993,1024
46,960
700,974
481,1021
768,1026
816,1017
938,1003
607,1013
737,975
693,1009
73,990
647,1058
488,990
356,964
503,1079
634,1016
769,967
952,953
150,1037
290,980
560,1030
316,972
903,1023
183,990
6,1009
339,1053
369,987
662,1009
566,1034
490,1027
777,996
405,1046
921,983
687,1012
76,983
964,984
100,1078
716,971
330,1023
504,978
5,1001
806,954
884,959
226,1037
851,990
636,901
111,1024
623,960
473,1019
828,1007
334,1018
671,970
390,1028
295,1025
457,1020
664,1007
743,1040
529,977
839,973
376,985
840,997
522,972
657,1005
658,1007
297,947
18,1007
684,1035
248,1000
781,1032
630,999
68,948
486,1018
483,966
308,987
215,993
214,1038
782,988
786,1031
33,929
951,959
996,985
389,977
533,1007
328,976
999,1049
135,1040
817,978
960,1023
878,994
887,984
211,959
371,1026
391,979
386,945
894,1083
207,980
767,1020
185,969
470,991
367,976
569,1020
571,1009
219,1047
353,987
301,1032
423,979
540,1038
281,999
60,1046
445,1017
904,985
340,1021
327,1000
530,959
813,1003
338,960
715,994
25,1033
779,971
30,1062
1,1027
936,966
236,953
923,1007
620,1024
306,1021
770,986
205,1022
751,1016
29,1031
827,984
957,1013
683,978
86,977
745,985
153,995
882,953
249,1007
820,1016
58,1007
643,965
238,948
650,997
477,1021
337,1053
342,955
167,1011
935,997
283,1023
332,1041
809,1028
436,989
39,1003
756,1025
450,970
270,981
765,999
468,1023
645,980
140,997
798,1047
833,975
991,1030
56,977
771,1005
55,1024
913,993
385,1057
918,969
725,1014
305,928
368,1079
126,983
184,1013
829,993
75,1004
789,956
292,1018
382,1004
911,1050
528,980
805,1013
598,1013
92,975
156,1028
989,1023
403,1031
143,1049
438,1041
582,992
110,1017
997,1006
614,962
147,954
555,1021
790,976
881,1012
138,1015
404,1010
149,993
279,982
962,959
648,920
38,989
977,1002
152,1018
49,1043
489,984
3,1023
723,1018
62,1005
335,1002
260,1004
200,1027
983,991
509,1038
942,1037
372,1008
298,986
869,964
22,976
191,987
606,994
439,962
667,1039
459,975
70,998
322,983
738,1019
679,971
349,1020
370,983
393,973
774,973
257,964
824,1007
310,997
300,1019
318,997
914,1016
746,1007
641,970
258,1004
197,1061
523,978
253,1045
857,979
536,938
397,1004
823,959
979,1002
640,1014
465,1055
879,1037
610,976
77,988
929,958
254,1015
79,985
876,997
883,974
443,1002
980,957
358,1003
411,1024
681,1035
479,1048
846,979
506,1033
304,998
427,1001
365,980
160,1002
660,1006
931,992
515,1029
326,1001
866,991
646,966
570,1024
939,952
114,989
23,973
750,969
291,1017
854,1032
263,1087
269,983
652,1023
735,959
134,1040
161,1072
810,989
225,989
65,1029
562,975
836,1028
897,994
928,1023
584,1014
199,1011
592,988
28,1028
720,1029
804,962
208,983
526,970
680,1044
388,1000
422,1023
613,1025
378,987
672,985
498,982
709,927
224,1008
834,1014
576,988
871,946
168,974
85,1002
319,978
285,1027
950,982
496,988
88,966
775,1046
976,991
984,1057
669,1022
16,967
346,987
104,1039
170,1042
588,1017
94,976
201,985
480,971
231,1017
732,1075
508,1010
688,976
267,980
469,987
119,1018
791,957
916,994
449,991
507,992
460,1005
832,977
93,990
597,1001
413,1056
766,1011
235,964
155,988
272,998
850,984
845,964
773,1039
755,961
467,1022
907,986
331,981
670,959
148,965
374,942
105,1005
905,996
812,1003
51,1013
124,1018
101,1022
538,1002
151,1030
142,944
970,1018
612,1012
192,1012
478,982
704,897
604,974
666,1020
157,1013
424,995
759,1041
329,1029
551,1039
518,1051
912,962
67,966
360,1013
599,969
880,1028
307,995
172,1018
895,991
565,989
573,1032
934,1000
137,1012
173,1013
221,1013
446,988
10,986
585,1021
222,1008
988,988
366,1010
583,983
902,1003
800,1032
849,1026
195,994
917,990
175,1021
464,1012
278,1015
189,953
377,1010
655,982
627,998
288,1017
862,1000
497,965
899,955
673,989
909,993
922,1026
440,1065
108,975
80,939
712,1024
524,1006
593,975
178,1001
400,1027
15,1021
213,1015
701,1048
171,1074
472,1054
463,996
927,999
861,993
72,1001
399,953
313,994
663,992
407,1014
35,1009
705,1049
885,963
852,1004
177,1015
409,1038
873,1003
256,1000
722,964
90,1023
619,1007
741,1021
728,1051
324,1009
547,981
36,992
417,1006
45,1017
706,1012
961,1005
877,1033
638,1030
625,1047
863,1000
795,990
802,996
179,1035
317,980
691,934
204,985
890,974
21,991
276,951
900,959
707,1000
454,1018
181,1018
216,932
600,1037
408,934
946,1023
209,1001
954,1003
109,998
915,1008
83,1044
384,1034
893,1019
401,992
968,959
748,1000
273,1015
525,961
32,995
432,1020
482,956
629,993
744,893
548,1000
736,1024
2,973
990,957
814,972
130,996
552,996
956,960
521,1054
541,987
117,996
689,1001
754,962
998,971
651,1028
17,962
116,1022
611,969
227,949
210,958
315,967
959,1029
995,1007
287,993
164,1016
502,1002
268,1019
714,1047
293,988
563,963
974,949
348,993
419,958
284,980
713,1000
106,1031
527,1027
448,975
703,1001
785,945
396,927
535,942
760,1056
127,992
726,1011
908,1006
7,1012
860,998
868,1044
924,995
487,1041
886,995
336,990
676,982
553,1007
14,974
856,1015
145,997
628,1010
40,992
644,987
280,983
787,1003
505,1001
325,961
42,1058
113,998
982,1001
753,1030
617,977
265,950
241,971
351,1008
501,998
47,975
146,991
511,981
302,1059
554,954
158,1006
412,1028
84,999
514,1022
694,982
747,976
749,962
223,941
242,984
544,989
375,957
556,945
120,977
99,1012
