1 - 5095               1958000    63138
2 - 1846               383600    20104
3 - 7690               1219000    99468
4 - 4033               616700    48333
5 - 2645               389700    30289
6 - 1706               233300    18424
7 - 9088               1041700    119936
8 - 6116               907000    77432
9 - 3495               505600    41339
10 - 2264               290300    25336
11 - 5270               919400    65588
12 - 2404               337500    27156
13 - 4144               395400    49824
14 - 3021               283400    35177
15 - 6848               686100    87680
16 - 5086               793300    63012
17 - 3288               492200    38648
18 - 6047               2665300    76466
19 - 9324               1943200    123476
20 - 6478               1002900    82500
21 - 3713               571200    44173
22 - 2226               320000    24842
23 - 8300               1322200    108116
24 - 2028               289000    22288
25 - 8068               1213900    104760
26 - 351               44300    2998
27 - 1936               180800    21184
28 - 894               77700    8810
29 - 7164               1058000    92104
30 - 8108               1217900    105320
31 - 2265               320600    25349
32 - 7888               792400    102240
33 - 8959               1346300    118001
34 - 8621               1529600    112931
35 - 9435               1345200    125141
36 - 6832               1040300    87456
37 - 8359               1272000    109001
38 - 3503               441700    41443
39 - 4268               451800    51560
40 - 3966               374000    47462
41 - 9294               1329200    123026
42 - 6741               1022400    86182
43 - 3205               705700    37569
44 - 1037               137700    10396
45 - 461               54200    4098
46 - 7302               1114300    94036
47 - 3940               562500    47124
48 - 1078               95800    10888
49 - 1431               130600    15124
50 - 8698               1318400    114086
51 - 204               23800    1580
52 - 5638               858300    70740
53 - 9280               1756900    122816
54 - 6446               1012600    82052
55 - 1744               267100    18880
56 - 1068               98300    10768
57 - 4768               722300    58560
58 - 3801               576000    45317
59 - 4338               653400    52540
60 - 8516               1965700    111356
61 - 9173               985500    121211
62 - 2213               198700    24673
63 - 2066               185600    22762
64 - 1426               127500    15064
65 - 6616               652700    84432
66 - 3232               336200    37920
67 - 5191               764700    64482
68 - 5678               860900    71300
69 - 4680               501600    57328
70 - 8554               1344300    111926
71 - 1272               129900    13216
