́,0,0.0002490661

,0.0002490661,0.0027397271
А,0.0027397271,0.0037359915
Б,0.0037359915,0.0042341237
В,0.0042341237,0.0059775864
—,0.0059775864,0.0072229169
Д,0.0072229169,0.0077210491
Е,0.0077210491,0.0082191813
З,0.0082191813,0.0087173135
К,0.0087173135,0.0112079745
Н,0.0112079745,0.0122042389
О,0.0122042389,0.0127023711
П,0.0127023711,0.0141967677
 ,0.0141967677,0.1474471312
Р,0.1474471312,0.1489415278
С,0.1489415278,0.1514321888
Т,0.1514321888,0.1524284532
(,0.1524284532,0.1554172464
),0.1554172464,0.1584060396
«,0.1584060396,0.1591532379
,,0.1591532379,0.1696140141
-,0.1696140141,0.1698630802
Э,0.1698630802,0.1701121463
.,0.1701121463,0.1785803937
а,0.1785803937,0.2430885136
0,0.2430885136,0.2448319763
б,0.2448319763,0.2572852813
1,0.2572852813,0.2597759423
в,0.2597759423,0.2948942624
2,0.2948942624,0.2963886590
г,0.2963886590,0.3118307572
3,0.3118307572,0.3125779555
д,0.3125779555,0.3310088469
4,0.3310088469,0.3315069791
е,0.3315069791,0.3902865787
5,0.3902865787,0.3912828431
ж,0.3912828431,0.3960150990
6,0.3960150990,0.3967622973
з,0.3967622973,0.4094646684
7,0.4094646684,0.4099628006
и,0.4099628006,0.4909092831
8,0.4909092831,0.4911583492
й,0.4911583492,0.4996265966
к,0.4996265966,0.5374846438
л,0.5374846438,0.5763389554
»,0.5763389554,0.5770861537
;,0.5770861537,0.5773352198
м,0.5773352198,0.5970114417
н,0.5970114417,0.6505606532
о,0.6505606532,0.7344959289
п,0.7344959289,0.7606478694
р,0.7606478694,0.8012456437
с,0.8012456437,0.8463266078
т,0.8463266078,0.8864262499
у,0.8864262499,0.8991286210
ф,0.8991286210,0.9021174142
х,0.9021174142,0.9103365955
ц,0.9103365955,0.9170613802
ч,0.9170613802,0.9285184208
ш,0.9285184208,0.9315072140
щ,0.9315072140,0.9320053462
I,0.9320053462,0.9342469411
ы,0.9342469411,0.9554175596
K,0.9554175596,0.9556666257
ь,0.9556666257,0.9718559222
э,0.9718559222,0.9731012527
ю,0.9731012527,0.9755919137
я,0.9755919137,0.9902868136
ё,0.9902868136,0.9907849458
V,0.9907849458,0.9922793424
X,0.9922793424,0.9927774746
[,0.9927774746,0.9960153339
],0.9960153339,0.9992531932
e,0.9992531932,0.9995022593
n,0.9995022593,0.9997513254
~,0.9997513254,1.0000003915
