C:\Users\ecla1\GitRep\korobov_11901\4s\WebSem\src\main\java\ru\itis\util\EmailUtil.java
C:\Users\ecla1\GitRep\korobov_11901\4s\WebSem\src\main\java\ru\itis\dto\MethodCallDto.java
C:\Users\ecla1\GitRep\korobov_11901\4s\WebSem\src\main\java\ru\itis\security\config\SecurityWebAppInitializer.java
C:\Users\ecla1\GitRep\korobov_11901\4s\WebSem\src\main\java\ru\itis\validation\PasswordValidator.java
C:\Users\ecla1\GitRep\korobov_11901\4s\WebSem\src\main\java\ru\itis\validation\ValidPassword.java
C:\Users\ecla1\GitRep\korobov_11901\4s\WebSem\src\main\java\ru\itis\validation\ValidName.java
C:\Users\ecla1\GitRep\korobov_11901\4s\WebSem\src\main\java\ru\itis\config\HttpSessionInitializer.java
C:\Users\ecla1\GitRep\korobov_11901\4s\WebSem\src\main\java\ru\itis\config\ApplicationInitializer.java
C:\Users\ecla1\GitRep\korobov_11901\4s\WebSem\src\main\java\ru\itis\security\details\UserDetailsServiceImpl.java
C:\Users\ecla1\GitRep\korobov_11901\4s\WebSem\src\main\java\ru\itis\util\EmailUtilImpl.java
C:\Users\ecla1\GitRep\korobov_11901\4s\WebSem\src\main\java\ru\itis\controllers\RootController.java
C:\Users\ecla1\GitRep\korobov_11901\4s\WebSem\src\main\java\ru\itis\services\MethodCallService.java
C:\Users\ecla1\GitRep\korobov_11901\4s\WebSem\src\main\java\ru\itis\controllers\SignInController.java
C:\Users\ecla1\GitRep\korobov_11901\4s\WebSem\src\main\java\ru\itis\util\FreemarkerMailsGeneratorImpl.java
C:\Users\ecla1\GitRep\korobov_11901\4s\WebSem\src\main\java\ru\itis\dto\UserDto.java
C:\Users\ecla1\GitRep\korobov_11901\4s\WebSem\src\main\java\ru\itis\security\details\UserDetailsImpl.java
C:\Users\ecla1\GitRep\korobov_11901\4s\WebSem\src\main\java\ru\itis\config\LocalisationConfig.java
C:\Users\ecla1\GitRep\korobov_11901\4s\WebSem\src\main\java\ru\itis\services\UsersServiceImpl.java
C:\Users\ecla1\GitRep\korobov_11901\4s\WebSem\src\main\java\ru\itis\models\MethodCall.java
C:\Users\ecla1\GitRep\korobov_11901\4s\WebSem\src\main\java\ru\itis\util\MailsGenerator.java
C:\Users\ecla1\GitRep\korobov_11901\4s\WebSem\src\main\java\ru\itis\services\SignUpServiceImpl.java
C:\Users\ecla1\GitRep\korobov_11901\4s\WebSem\src\main\java\ru\itis\validation\NameValidator.java
C:\Users\ecla1\GitRep\korobov_11901\4s\WebSem\src\main\java\ru\itis\config\ApplicationConfig.java
C:\Users\ecla1\GitRep\korobov_11901\4s\WebSem\src\main\java\ru\itis\services\MethodCallServiceImpl.java
C:\Users\ecla1\GitRep\korobov_11901\4s\WebSem\src\main\java\ru\itis\models\User.java
C:\Users\ecla1\GitRep\korobov_11901\4s\WebSem\src\main\java\ru\itis\repositories\MethodCallRepository.java
C:\Users\ecla1\GitRep\korobov_11901\4s\WebSem\src\main\java\ru\itis\controllers\ProfileController.java
C:\Users\ecla1\GitRep\korobov_11901\4s\WebSem\src\main\java\ru\itis\repositories\UsersRepository.java
C:\Users\ecla1\GitRep\korobov_11901\4s\WebSem\src\main\java\ru\itis\security\config\SecurityConfig.java
C:\Users\ecla1\GitRep\korobov_11901\4s\WebSem\src\main\java\ru\itis\controllers\UsersController.java
C:\Users\ecla1\GitRep\korobov_11901\4s\WebSem\src\main\java\ru\itis\aop\MethodsCaller.java
C:\Users\ecla1\GitRep\korobov_11901\4s\WebSem\src\main\java\ru\itis\services\UsersService.java
C:\Users\ecla1\GitRep\korobov_11901\4s\WebSem\src\main\java\ru\itis\services\SignUpService.java
C:\Users\ecla1\GitRep\korobov_11901\4s\WebSem\src\main\java\ru\itis\services\SignUpServiceFakeImpl.java
C:\Users\ecla1\GitRep\korobov_11901\4s\WebSem\src\main\java\ru\itis\controllers\SignUpController.java
